<?xml version="1.0" encoding="UTF-8" standalone="no"?>
<svg
   xmlns:dc="http://purl.org/dc/elements/1.1/"
   xmlns:cc="http://creativecommons.org/ns#"
   xmlns:rdf="http://www.w3.org/1999/02/22-rdf-syntax-ns#"
   xmlns:svg="http://www.w3.org/2000/svg"
   xmlns="http://www.w3.org/2000/svg"
   xmlns:sodipodi="http://sodipodi.sourceforge.net/DTD/sodipodi-0.dtd"
   xmlns:inkscape="http://www.inkscape.org/namespaces/inkscape"
   inkscape:export-ydpi="90"
   inkscape:export-xdpi="90"
   inkscape:export-filename="C:\Users\sice\Desktop\hazBarrioDiseño\hazBarrio\hazBarrio\elementosGraficos\background.png"
   sodipodi:docname="backgroundLoginWeb.svg"
   inkscape:version="1.1-dev (f9311a1, 2019-12-25)"
   id="svg3796"
   height="640"
   width="380"
   version="1.1">
  <sodipodi:namedview
     inkscape:document-rotation="0"
     inkscape:current-layer="svg3796"
     inkscape:window-maximized="1"
     inkscape:window-y="23"
     inkscape:window-x="0"
     inkscape:cy="132.72483"
     inkscape:cx="5.3020134"
     inkscape:zoom="1.1640625"
     showgrid="false"
     id="namedview37"
     inkscape:window-height="652"
     inkscape:window-width="1359"
     inkscape:pageshadow="2"
     inkscape:pageopacity="0"
     guidetolerance="10"
     gridtolerance="10"
     objecttolerance="10"
     borderopacity="1"
     bordercolor="#666666"
     pagecolor="#ffffff" />
  <defs
     id="defs3798">
    <clipPath
       id="clipPath2999">
      <path
         d="M 0,482 512,482 512,0 0,0 0,482 z"
         id="path3001"
         inkscape:connector-curvature="0" />
    </clipPath>
    <clipPath
       id="clipPath2999-1">
      <path
         inkscape:connector-curvature="0"
         id="path3001-7"
         d="M 0,482 512,482 512,0 0,0 0,482 z" />
    </clipPath>
    <clipPath
       id="clipPath3211">
      <path
         inkscape:connector-curvature="0"
         id="path3213"
         d="M 0,482 512,482 512,0 0,0 0,482 z" />
    </clipPath>
  </defs>
  <metadata
     id="metadata3801">
    <rdf:RDF>
      <cc:Work
         rdf:about="">
        <dc:format>image/svg+xml</dc:format>
        <dc:type
           rdf:resource="http://purl.org/dc/dcmitype/StillImage" />
        <dc:title />
      </cc:Work>
    </rdf:RDF>
  </metadata>
  <rect
     width="380"
     height="140"
     x="-2.5805664e-06"
     y="2.6171874e-06"
     id="rect3981"
     style="fill:#ffffff;fill-opacity:1;stroke:none;stroke-width:1" />
  <g
     id="g222"
     transform="matrix(0.10627034,0,0,0.10627034,165.1394,-18.933007)"
     style="stroke-width:4.16088">
    <path
       inkscape:connector-curvature="0"
       d="m 380.12943,298.16029 -14.74296,-14.74227 -23.90596,23.90597 v -26.96076 h -20.85185 v 26.96076 l -23.90664,-23.90597 -14.743,14.74227 41.70373,41.70372 h 14.74295 z"
       fill="#8ae65c"
       id="path1060"
       style="stroke-width:2.89208" />
    <g
       id="g1064"
       transform="matrix(0.695062,0,0,0.695062,52.193626,280.36323)"
       style="stroke-width:4.16088">
      <path
         inkscape:connector-curvature="0"
         d="m 445.148,278.73 -88.198,-2.124 -1.729,-12.642 C 346.974,204.17 341.203,134.824 341.203,120 c 0,-33.091 26.909,-60 60,-60 33.091,0 60,26.909 60,60 0,13.11 -5.376,81.665 -14.224,145.474 z"
         fill="#ff9827"
         id="path1062"
         style="stroke-width:4.16088" />
    </g>
    <path
       inkscape:connector-curvature="0"
       d="m 255.84333,397.17675 c -3.90974,-8.18574 -10.32446,-14.62065 -17.97015,-18.6937 0.5192,-0.72287 1.00785,-1.46589 1.47633,-2.22977 5.86492,-9.46881 7.68737,-20.65863 5.13161,-31.5016 -5.2741,-22.37891 -27.71418,-36.31768 -50.15426,-31.03313 -5.27414,-22.3789 -27.79554,-36.27667 -50.16472,-31.02339 -10.84366,2.55505 -20.03794,9.18316 -25.90287,18.65199 -5.85451,9.47925 -7.67696,20.66836 -5.12122,31.49187 v 0.0106 c -19.78146,4.66178 -33.381043,22.4651 -33.000845,41.34716 0.299565,14.88126 9.306183,28.72272 22.900905,36.00212 -8.162811,11.42892 -5.757898,23.40344 -1.35399,36.97939 l 20.85187,20.85185 105.25742,1.28307 c 42.30425,-32.90699 32.16329,-63.53352 28.04992,-72.13629 z"
       fill="#8ae65c"
       id="path1066"
       style="stroke-width:2.89208" />
    <g
       id="g1070"
       transform="matrix(0.695062,0,0,0.695062,52.193626,280.36323)"
       style="stroke-width:4.16088">
      <path
         inkscape:connector-curvature="0"
         d="m 326.203,270 c -41.353,0 -75,-33.647 -75,-75 0,-41.353 33.647,-75 75,-75 41.353,0 75,33.647 75,75 0,41.353 -33.648,75 -75,75 z"
         fill="#ff435b"
         id="path1068"
         style="stroke-width:4.16088" />
    </g>
    <path
       inkscape:connector-curvature="0"
       d="m 212.17467,402.78659 -17.73661,-10.97571 -10.02904,16.2102 -2.79971,-11.87928 20.99434,-33.94961 -17.73589,-10.97575 -10.02558,16.21096 -6.18396,-26.2393 -20.30207,4.7855 6.18327,26.23234 -16.20189,-10.0235 -10.97573,17.73592 33.94405,21.00129 2.8011,11.88416 -16.20885,-10.02765 -10.97572,17.7366 33.95169,21.00408 3.79156,16.08719 20.30207,-4.78549 -3.79295,-16.0907 z"
       fill="#00cc76"
       id="path1072"
       style="stroke-width:2.89208" />
    <path
       inkscape:connector-curvature="0"
       sodipodi:nodetypes="ccccccc"
       d="m 237.22122,447.17812 h -135.5371 v 127.05684 h 135.5371 135.53711 V 447.17812 Z"
       fill="#edf5ff"
       id="path1074"
       style="fill:#e9c6af;stroke-width:2.89208" />
    <path
       inkscape:connector-curvature="0"
       sodipodi:nodetypes="ccccc"
       d="M 237.22122,447.17812 H 372.75833 V 574.23496 H 237.22122 Z"
       fill="#d5e8fe"
       id="path1076"
       style="fill:#deaa87;stroke-width:2.89208" />
    <g
       id="g1127"
       transform="matrix(3.7795276,0,0,3.7795276,-164.13502,-28.811085)"
       style="stroke-width:4.16088">
      <g
         style="font-style:normal;font-weight:normal;font-size:24.6944px;line-height:1.25;font-family:sans-serif;fill:#4d4d4d;fill-opacity:1;stroke:none;stroke-width:1.10089"
         id="text1103"
         aria-label="RED">
        <path
           inkscape:connector-curvature="0"
           id="path101"
           style="font-style:normal;font-variant:normal;font-weight:normal;font-stretch:normal;font-size:24.6944px;font-family:'Bloxhall Sample';-inkscape-font-specification:'Bloxhall Sample';fill:#4d4d4d;fill-opacity:1;stroke-width:1.10089"
           d="m 81.373281,181.39114 -3.062105,-6.54401 h -1.382887 v 6.54401 h -3.333744 v -17.28608 h 5.235213 q 1.259415,0 2.296579,0.39511 1.06186,0.37042 1.827386,1.08656 0.765526,0.69144 1.185331,1.67922 0.4445,0.98777 0.4445,2.1731 0,0.74084 -0.22225,1.48167 -0.197555,0.71614 -0.592666,1.3335 -0.370416,0.59266 -0.913693,1.06185 -0.543276,0.4692 -1.210025,0.71614 l 3.30905,7.35893 z m -4.444992,-13.95233 v 4.07457 h 1.654525 q 1.086554,0 1.753303,-0.56797 0.691443,-0.56797 0.691443,-1.50636 0,-0.8643 -0.592666,-1.43227 -0.567971,-0.56797 -1.728608,-0.56797 z" />
        <path
           inkscape:connector-curvature="0"
           id="path103"
           style="font-style:normal;font-variant:normal;font-weight:normal;font-stretch:normal;font-size:24.6944px;font-family:'Bloxhall Sample';-inkscape-font-specification:'Bloxhall Sample';fill:#4d4d4d;fill-opacity:1;stroke-width:1.10089"
           d="m 86.568752,164.10506 h 3.333744 v 0.0247 h 4.074576 v 3.33374 h -4.074576 v 3.18558 h 4.074576 v 3.33374 h -4.074576 v 4.07458 h 5.309296 l -0.543276,3.33374 h -8.099764 z" />
        <path
           inkscape:connector-curvature="0"
           id="path105"
           style="font-style:normal;font-variant:normal;font-weight:normal;font-stretch:normal;font-size:24.6944px;font-family:'Bloxhall Sample';-inkscape-font-specification:'Bloxhall Sample';fill:#4d4d4d;fill-opacity:1;stroke-width:1.10089"
           d="m 97.420784,164.10506 6.148906,0.0494 q 1.72861,0.0247 3.16088,0.76553 1.45697,0.71614 2.49414,1.92616 1.03716,1.18533 1.60513,2.74108 0.56797,1.55575 0.56797,3.23497 0,1.7533 -0.64205,3.30905 -0.64205,1.55574 -1.778,2.74107 -1.11124,1.16064 -2.6423,1.85208 -1.50636,0.66675 -3.23496,0.66675 h -5.679716 z m 10.272866,8.71713 q 0,-1.13595 -0.37041,-2.09903 -0.34572,-0.96308 -1.01247,-1.67922 -0.64206,-0.71613 -1.55575,-1.11124 -0.889,-0.41981 -2.00025,-0.41981 h -2.00024 v 10.54451 h 1.85208 q 1.13594,0 2.07433,-0.39511 0.93838,-0.41981 1.60513,-1.11125 0.66675,-0.71614 1.03717,-1.65452 0.37041,-0.96309 0.37041,-2.07433 z" />
      </g>
      <g
         style="font-style:normal;font-weight:normal;font-size:24.6944px;line-height:1.25;font-family:sans-serif;fill:#00cc76;fill-opacity:1;stroke:none;stroke-width:1.10089"
         id="text1120"
         aria-label="AL">
        <path
           inkscape:connector-curvature="0"
           id="path108"
           style="font-style:normal;font-variant:normal;font-weight:normal;font-stretch:normal;font-size:24.6944px;font-family:'Bloxhall Sample';-inkscape-font-specification:'Bloxhall Sample';fill:#00cc76;fill-opacity:1;stroke-width:1.10089"
           d="m 120.81382,163.61118 8.64304,17.77996 h -3.70416 l -1.16063,-2.46944 h -7.58119 l -1.13594,2.46944 h -3.70416 z m -2.24719,11.97678 h 4.46969 l -2.2225,-4.81541 z" />
        <path
           inkscape:connector-curvature="0"
           id="path110"
           style="font-style:normal;font-variant:normal;font-weight:normal;font-stretch:normal;font-size:24.6944px;font-family:'Bloxhall Sample';-inkscape-font-specification:'Bloxhall Sample';fill:#00cc76;fill-opacity:1;stroke-width:1.10089"
           d="m 130.83821,164.10506 h 3.33374 v 13.95234 h 4.61785 l -0.54327,3.33374 h -7.40832 z" />
      </g>
    </g>
  </g>
</svg>
