<?xml version="1.0" encoding="UTF-8" standalone="no"?>
<svg
   xmlns:dc="http://purl.org/dc/elements/1.1/"
   xmlns:cc="http://creativecommons.org/ns#"
   xmlns:rdf="http://www.w3.org/1999/02/22-rdf-syntax-ns#"
   xmlns:svg="http://www.w3.org/2000/svg"
   xmlns="http://www.w3.org/2000/svg"
   xmlns:sodipodi="http://sodipodi.sourceforge.net/DTD/sodipodi-0.dtd"
   xmlns:inkscape="http://www.inkscape.org/namespaces/inkscape"
   width="300"
   height="380"
   viewBox="0 0 79.374998 100.54167"
   version="1.1"
   id="svg8"
   inkscape:version="1.0 (4035a4f, 2020-05-01)"
   sodipodi:docname="logo.svg">
  <defs
     id="defs2" />
  <sodipodi:namedview
     id="base"
     pagecolor="#ffffff"
     bordercolor="#666666"
     borderopacity="1.0"
     inkscape:pageopacity="0.0"
     inkscape:pageshadow="2"
     inkscape:zoom="0.43740881"
     inkscape:cx="396.85039"
     inkscape:cy="561.25984"
     inkscape:document-units="mm"
     inkscape:current-layer="layer1"
     inkscape:document-rotation="0"
     showgrid="false"
     units="px"
     inkscape:window-width="1251"
     inkscape:window-height="699"
     inkscape:window-x="0"
     inkscape:window-y="23"
     inkscape:window-maximized="0" />
  <metadata
     id="metadata5">
    <rdf:RDF>
      <cc:Work
         rdf:about="">
        <dc:format>image/svg+xml</dc:format>
        <dc:type
           rdf:resource="http://purl.org/dc/dcmitype/StillImage" />
        <dc:title />
      </cc:Work>
    </rdf:RDF>
  </metadata>
  <g
     inkscape:label="Capa 1"
     inkscape:groupmode="layer"
     id="layer1">
    <path
       d="m 79.374999,5.185252 -3.90074,-3.900558 -6.32512,6.32512 V 0.476446 h -5.51705 v 7.133368 l -6.3253,-6.32512 -3.90075,3.900558 11.03411,11.034109 h 3.90074 z"
       fill="#8ae65c"
       id="path1060"
       style="stroke-width:0.183902" />
    <g
       id="g1064"
       transform="matrix(0.18390182,0,0,0.18390182,-7.391347,0.476446)">
      <path
         d="m 445.148,278.73 -88.198,-2.124 -1.729,-12.642 C 346.974,204.17 341.203,134.824 341.203,120 c 0,-33.091 26.909,-60 60,-60 33.091,0 60,26.909 60,60 0,13.11 -5.376,81.665 -14.224,145.474 z"
         fill="#ff9827"
         id="path1062" />
    </g>
    <path
       d="m 46.490969,31.383356 c -1.03445,-2.16581 -2.73168,-3.86838 -4.7546,-4.94604 0.13737,-0.19126 0.26666,-0.38785 0.39061,-0.58996 1.55176,-2.50529 2.03395,-5.46593 1.35774,-8.334797 C 42.089279,11.591472 36.152009,7.903505 30.214736,9.30171 28.819289,3.380624 22.860502,-0.296493 16.94199,1.093437 14.072938,1.76946 11.640285,3.523147 10.088521,6.028442 8.539516,8.536495 8.057325,11.496946 8.733532,14.360666 v 0.0028 c -5.233845,1.23343 -8.832068,5.94389 -8.731474,10.93977 0.07926,3.93733 2.462261,7.59955 6.059197,9.52556 -2.159743,3.0239 -1.523443,6.19216 -0.358241,9.78413 l 5.517055,5.51705 27.84936,0.33948 c 11.193,-8.70664 8.50987,-16.80991 7.42154,-19.08606 z"
       fill="#8ae65c"
       id="path1066"
       style="stroke-width:0.183902" />
    <g
       id="g1070"
       transform="matrix(0.18390182,0,0,0.18390182,-7.391347,0.476446)">
      <path
         d="m 326.203,270 c -41.353,0 -75,-33.647 -75,-75 0,-41.353 33.647,-75 75,-75 41.353,0 75,33.647 75,75 0,41.353 -33.648,75 -75,75 z"
         fill="#ff435b"
         id="path1068" />
    </g>
    <path
       d="m 34.936969,32.867626 -4.692809,-2.90399 -2.653519,4.28895 -0.740756,-3.14306 5.554754,-8.9825 -4.692623,-2.904 -2.6526,4.28915 -1.636174,-6.942482 -5.371588,1.266164 1.63599,6.940638 -4.286751,-2.65205 -2.903994,4.69263 8.98103,5.55659 0.741124,3.14435 -4.288591,-2.65315 -2.903993,4.69281 8.983052,5.55733 1.003184,4.2564 5.371589,-1.26616 -1.003553,-4.25733 z"
       fill="#00cc76"
       id="path1072"
       style="stroke-width:0.183902" />
    <path
       sodipodi:nodetypes="ccccccc"
       d="M 41.563869,44.612886 H 5.703014 v 33.61712 h 35.860855 35.86086 v -33.61712 z"
       fill="#edf5ff"
       id="path1074"
       style="fill:#e9c6af;stroke-width:0.183902" />
    <path
       sodipodi:nodetypes="ccccc"
       d="m 41.563869,44.612886 h 35.86086 v 33.61712 h -35.86086 z"
       fill="#d5e8fe"
       id="path1076"
       style="fill:#deaa87;stroke-width:0.183902" />
    <g
       id="g1127"
       transform="translate(-64.628302,-81.325924)">
      <g
         style="font-style:normal;font-weight:normal;font-size:24.6944px;line-height:1.25;font-family:sans-serif;fill:#4d4d4d;fill-opacity:1;stroke:none;stroke-width:0.264583"
         id="text1103"
         aria-label="RED">
        <path
           id="path101"
           style="font-style:normal;font-variant:normal;font-weight:normal;font-stretch:normal;font-size:24.6944px;font-family:'Bloxhall Sample';-inkscape-font-specification:'Bloxhall Sample';fill:#4d4d4d;fill-opacity:1;stroke-width:0.264583"
           d="m 81.373281,181.39114 -3.062105,-6.54401 h -1.382887 v 6.54401 h -3.333744 v -17.28608 h 5.235213 q 1.259415,0 2.296579,0.39511 1.06186,0.37042 1.827386,1.08656 0.765526,0.69144 1.185331,1.67922 0.4445,0.98777 0.4445,2.1731 0,0.74084 -0.22225,1.48167 -0.197555,0.71614 -0.592666,1.3335 -0.370416,0.59266 -0.913693,1.06185 -0.543276,0.4692 -1.210025,0.71614 l 3.30905,7.35893 z m -4.444992,-13.95233 v 4.07457 h 1.654525 q 1.086554,0 1.753303,-0.56797 0.691443,-0.56797 0.691443,-1.50636 0,-0.8643 -0.592666,-1.43227 -0.567971,-0.56797 -1.728608,-0.56797 z" />
        <path
           id="path103"
           style="font-style:normal;font-variant:normal;font-weight:normal;font-stretch:normal;font-size:24.6944px;font-family:'Bloxhall Sample';-inkscape-font-specification:'Bloxhall Sample';fill:#4d4d4d;fill-opacity:1;stroke-width:0.264583"
           d="m 86.568752,164.10506 h 3.333744 v 0.0247 h 4.074576 v 3.33374 h -4.074576 v 3.18558 h 4.074576 v 3.33374 h -4.074576 v 4.07458 h 5.309296 l -0.543276,3.33374 h -8.099764 z" />
        <path
           id="path105"
           style="font-style:normal;font-variant:normal;font-weight:normal;font-stretch:normal;font-size:24.6944px;font-family:'Bloxhall Sample';-inkscape-font-specification:'Bloxhall Sample';fill:#4d4d4d;fill-opacity:1;stroke-width:0.264583"
           d="m 97.420784,164.10506 6.148906,0.0494 q 1.72861,0.0247 3.16088,0.76553 1.45697,0.71614 2.49414,1.92616 1.03716,1.18533 1.60513,2.74108 0.56797,1.55575 0.56797,3.23497 0,1.7533 -0.64205,3.30905 -0.64205,1.55574 -1.778,2.74107 -1.11124,1.16064 -2.6423,1.85208 -1.50636,0.66675 -3.23496,0.66675 h -5.679716 z m 10.272866,8.71713 q 0,-1.13595 -0.37041,-2.09903 -0.34572,-0.96308 -1.01247,-1.67922 -0.64206,-0.71613 -1.55575,-1.11124 -0.889,-0.41981 -2.00025,-0.41981 h -2.00024 v 10.54451 h 1.85208 q 1.13594,0 2.07433,-0.39511 0.93838,-0.41981 1.60513,-1.11125 0.66675,-0.71614 1.03717,-1.65452 0.37041,-0.96309 0.37041,-2.07433 z" />
      </g>
      <g
         style="font-style:normal;font-weight:normal;font-size:24.6944px;line-height:1.25;font-family:sans-serif;fill:#00cc76;fill-opacity:1;stroke:none;stroke-width:0.264583"
         id="text1120"
         aria-label="AL">
        <path
           id="path108"
           style="font-style:normal;font-variant:normal;font-weight:normal;font-stretch:normal;font-size:24.6944px;font-family:'Bloxhall Sample';-inkscape-font-specification:'Bloxhall Sample';fill:#00cc76;fill-opacity:1;stroke-width:0.264583"
           d="m 120.81382,163.61118 8.64304,17.77996 h -3.70416 l -1.16063,-2.46944 h -7.58119 l -1.13594,2.46944 h -3.70416 z m -2.24719,11.97678 h 4.46969 l -2.2225,-4.81541 z" />
        <path
           id="path110"
           style="font-style:normal;font-variant:normal;font-weight:normal;font-stretch:normal;font-size:24.6944px;font-family:'Bloxhall Sample';-inkscape-font-specification:'Bloxhall Sample';fill:#00cc76;fill-opacity:1;stroke-width:0.264583"
           d="m 130.83821,164.10506 h 3.33374 v 13.95234 h 4.61785 l -0.54327,3.33374 h -7.40832 z" />
      </g>
    </g>
  </g>
</svg>
