<?xml version="1.0" encoding="UTF-8" standalone="no"?>
<svg
   xmlns:dc="http://purl.org/dc/elements/1.1/"
   xmlns:cc="http://creativecommons.org/ns#"
   xmlns:rdf="http://www.w3.org/1999/02/22-rdf-syntax-ns#"
   xmlns:svg="http://www.w3.org/2000/svg"
   xmlns="http://www.w3.org/2000/svg"
   xmlns:sodipodi="http://sodipodi.sourceforge.net/DTD/sodipodi-0.dtd"
   xmlns:inkscape="http://www.inkscape.org/namespaces/inkscape"
   sodipodi:docname="pedido.svg"
   inkscape:version="1.0 (4035a4f, 2020-05-01)"
   id="svg8"
   version="1.1"
   viewBox="0 0 10.583333 10.583334"
   height="40"
   width="40">
  <defs
     id="defs2" />
  <sodipodi:namedview
     inkscape:window-maximized="0"
     inkscape:window-y="0"
     inkscape:window-x="0"
     inkscape:window-height="1080"
     inkscape:window-width="1920"
     inkscape:pagecheckerboard="true"
     units="px"
     showgrid="false"
     inkscape:document-rotation="0"
     inkscape:current-layer="layer1"
     inkscape:document-units="px"
     inkscape:cy="30.650809"
     inkscape:cx="28.521728"
     inkscape:zoom="14.06"
     inkscape:pageshadow="2"
     inkscape:pageopacity="0.0"
     borderopacity="1.0"
     bordercolor="#666666"
     pagecolor="#ffffff"
     id="base" />
  <metadata
     id="metadata5">
    <rdf:RDF>
      <cc:Work
         rdf:about="">
        <dc:format>image/svg+xml</dc:format>
        <dc:type
           rdf:resource="http://purl.org/dc/dcmitype/StillImage" />
        <dc:title></dc:title>
      </cc:Work>
    </rdf:RDF>
  </metadata>
  <g
     id="layer1"
     inkscape:groupmode="layer"
     inkscape:label="Layer 1">
    <g
       id="g1519">
      <rect
         style="opacity:0.99;fill:#f8f9fa;stroke:#000000;stroke-width:0.264999;stroke-opacity:0.0243902"
         id="rect833"
         width="10.318335"
         height="10.318335"
         x="0.13249946"
         y="0.13249946"
         ry="1.3229167"
         rx="1.3229167" />
      <g
         id="g1498"
         transform="matrix(0.08780254,0,0,0.09032937,4.5351971,5.1211266)"
         style="stroke-width:11.2288">
        <path
           d="m 48.303079,-43.197602 -3.900741,-3.900558 -6.325119,6.32512 v -7.133368 h -5.517052 v 7.133368 l -6.325299,-6.32512 -3.900752,3.900558 11.034112,11.034109 h 3.900739 z"
           fill="#8ae65c"
           id="path1060"
           style="stroke-width:2.06499" />
        <g
           id="g1064"
           transform="matrix(0.18390182,0,0,0.18390182,-38.463271,-47.906408)"
           style="stroke-width:11.2288">
          <path
             d="m 445.148,278.73 -88.198,-2.124 -1.729,-12.642 C 346.974,204.17 341.203,134.824 341.203,120 c 0,-33.091 26.909,-60 60,-60 33.091,0 60,26.909 60,60 0,13.11 -5.376,81.665 -14.224,145.474 z"
             fill="#ff9827"
             id="path1062"
             style="stroke-width:18.8287" />
        </g>
        <path
           d="m 15.419048,-16.999497 c -1.034452,-2.16581 -2.73168,-3.86838 -4.754602,-4.94604 0.137372,-0.19126 0.26666,-0.38785 0.390612,-0.58996 1.55176,-2.50529 2.03395,-5.465931 1.357739,-8.334798 -1.395439,-5.921087 -7.3327115,-9.609054 -13.26998247,-8.210849 -1.39544903,-5.921086 -7.35423503,-9.598203 -13.27274753,-8.208273 -2.869052,0.676023 -5.301705,2.42971 -6.853469,4.935005 -1.549005,2.508053 -2.031196,5.468504 -1.354989,8.332224 v 0.0028 c -5.233845,1.23343 -8.832068,5.943891 -8.731474,10.939771 0.07926,3.937331 2.462261,7.599551 6.059197,9.525559 -2.159743,3.023901 -1.523443,6.1921601 -0.358241,9.7841301 l 5.517055,5.517052 27.8493605,0.339479 C 19.190506,-6.6200379 16.507377,-14.723308 15.419048,-16.999457 Z"
           fill="#8ae65c"
           id="path1066"
           style="stroke-width:2.06499" />
        <g
           id="g1070"
           transform="matrix(0.18390182,0,0,0.18390182,-38.463271,-47.906408)"
           style="stroke-width:11.2288">
          <path
             d="m 326.203,270 c -41.353,0 -75,-33.647 -75,-75 0,-41.353 33.647,-75 75,-75 41.353,0 75,33.647 75,75 0,41.353 -33.648,75 -75,75 z"
             fill="#ff435b"
             id="path1068"
             style="stroke-width:18.8287" />
        </g>
        <path
           d="m 3.8650475,-15.515227 -4.69281097,-2.90399 -2.65351703,4.288949 -0.740757,-3.14306 5.554753,-8.982499 -4.692621,-2.904 -2.652601,4.28915 -1.636174,-6.942483 -5.3715875,1.266165 1.635989,6.940638 -4.28675,-2.652051 -2.903995,4.692631 8.9810305,5.556589 0.741124,3.144351 -4.2885915,-2.653149 -2.903992,4.692808 8.9830515,5.5573301 1.003184,4.256402 5.37158803,-1.266161 -1.00355203,-4.257331 z"
           fill="#00cc76"
           id="path1072"
           style="stroke-width:2.06499" />
        <path
           sodipodi:nodetypes="ccccccc"
           d="M 10.491948,-3.7699679 H -25.368909 V 29.847155 H 10.491948 46.352809 V -3.7699679 Z"
           fill="#edf5ff"
           id="path1074"
           style="fill:#e9c6af;stroke-width:2.06499" />
        <path
           sodipodi:nodetypes="ccccc"
           d="M 10.491948,-3.7699679 H 46.352809 V 29.847155 H 10.491948 Z"
           fill="#d5e8fe"
           id="path1076"
           style="fill:#deaa87;stroke-width:2.06499" />
        <g
           id="g1127"
           transform="translate(-95.700225,-129.70878)"
           style="stroke-width:11.2288">
          <g
             style="font-style:normal;font-weight:normal;font-size:24.6944px;line-height:1.25;font-family:sans-serif;fill:#4d4d4d;fill-opacity:1;stroke:none;stroke-width:2.97094"
             id="text1103"
             aria-label="RED">
            <path
               id="path101"
               style="font-style:normal;font-variant:normal;font-weight:normal;font-stretch:normal;font-size:24.6944px;font-family:'Bloxhall Sample';-inkscape-font-specification:'Bloxhall Sample';fill:#4d4d4d;fill-opacity:1;stroke-width:2.97094"
               d="m 81.373281,181.39114 -3.062105,-6.54401 h -1.382887 v 6.54401 h -3.333744 v -17.28608 h 5.235213 q 1.259415,0 2.296579,0.39511 1.06186,0.37042 1.827386,1.08656 0.765526,0.69144 1.185331,1.67922 0.4445,0.98777 0.4445,2.1731 0,0.74084 -0.22225,1.48167 -0.197555,0.71614 -0.592666,1.3335 -0.370416,0.59266 -0.913693,1.06185 -0.543276,0.4692 -1.210025,0.71614 l 3.30905,7.35893 z m -4.444992,-13.95233 v 4.07457 h 1.654525 q 1.086554,0 1.753303,-0.56797 0.691443,-0.56797 0.691443,-1.50636 0,-0.8643 -0.592666,-1.43227 -0.567971,-0.56797 -1.728608,-0.56797 z" />
            <path
               id="path103"
               style="font-style:normal;font-variant:normal;font-weight:normal;font-stretch:normal;font-size:24.6944px;font-family:'Bloxhall Sample';-inkscape-font-specification:'Bloxhall Sample';fill:#4d4d4d;fill-opacity:1;stroke-width:2.97094"
               d="m 86.568752,164.10506 h 3.333744 v 0.0247 h 4.074576 v 3.33374 h -4.074576 v 3.18558 h 4.074576 v 3.33374 h -4.074576 v 4.07458 h 5.309296 l -0.543276,3.33374 h -8.099764 z" />
            <path
               id="path105"
               style="font-style:normal;font-variant:normal;font-weight:normal;font-stretch:normal;font-size:24.6944px;font-family:'Bloxhall Sample';-inkscape-font-specification:'Bloxhall Sample';fill:#4d4d4d;fill-opacity:1;stroke-width:2.97094"
               d="m 97.420784,164.10506 6.148906,0.0494 q 1.72861,0.0247 3.16088,0.76553 1.45697,0.71614 2.49414,1.92616 1.03716,1.18533 1.60513,2.74108 0.56797,1.55575 0.56797,3.23497 0,1.7533 -0.64205,3.30905 -0.64205,1.55574 -1.778,2.74107 -1.11124,1.16064 -2.6423,1.85208 -1.50636,0.66675 -3.23496,0.66675 h -5.679716 z m 10.272866,8.71713 q 0,-1.13595 -0.37041,-2.09903 -0.34572,-0.96308 -1.01247,-1.67922 -0.64206,-0.71613 -1.55575,-1.11124 -0.889,-0.41981 -2.00025,-0.41981 h -2.00024 v 10.54451 h 1.85208 q 1.13594,0 2.07433,-0.39511 0.93838,-0.41981 1.60513,-1.11125 0.66675,-0.71614 1.03717,-1.65452 0.37041,-0.96309 0.37041,-2.07433 z" />
          </g>
          <g
             style="font-style:normal;font-weight:normal;font-size:24.6944px;line-height:1.25;font-family:sans-serif;fill:#00cc76;fill-opacity:1;stroke:none;stroke-width:2.97094"
             id="text1120"
             aria-label="AL">
            <path
               id="path108"
               style="font-style:normal;font-variant:normal;font-weight:normal;font-stretch:normal;font-size:24.6944px;font-family:'Bloxhall Sample';-inkscape-font-specification:'Bloxhall Sample';fill:#00cc76;fill-opacity:1;stroke-width:2.97094"
               d="m 120.81382,163.61118 8.64304,17.77996 h -3.70416 l -1.16063,-2.46944 h -7.58119 l -1.13594,2.46944 h -3.70416 z m -2.24719,11.97678 h 4.46969 l -2.2225,-4.81541 z" />
            <path
               id="path110"
               style="font-style:normal;font-variant:normal;font-weight:normal;font-stretch:normal;font-size:24.6944px;font-family:'Bloxhall Sample';-inkscape-font-specification:'Bloxhall Sample';fill:#00cc76;fill-opacity:1;stroke-width:2.97094"
               d="m 130.83821,164.10506 h 3.33374 v 13.95234 h 4.61785 l -0.54327,3.33374 h -7.40832 z" />
          </g>
        </g>
      </g>
    </g>
  </g>
</svg>
